0_[Inizio Demacia vs Noxus]_-1
1_[Fine Demacia vs Noxus]_0
2_[Inizio Piltover vs Zaun]_1
3_[Inizio Ionia vs Noxus]_1
4_[Fine Piltover vs Zaun]_2
5_[Fine Ionia vs Noxus]_3_4
6_[Inizio Bilgewater]_1
7_[Inizio Shurima]_5
8_[Inizio Targon]_7
9_[Inizio Freljord]_7
10_[Inizio Void]_7
11_[Inizio Shadow Isles]_6_13
12_[Fine Targon]_8
13_[Inizio Draghi]_12
14_[Fine Draghi]_13
15_[Fine Shadow Isles]_11
16_[Fine Bilgewater]_15
17_[Fine Shurima]_7
18_[Fine Freljord]_9
19_[Inizio Fuga di Annie]_7
20_[Fine Fuga di Annie]_19
21_[Inizio Piltover Zaun 2]_20
22_[Fine Piltover Zaun 2]_21
23_[Inizio Bandle City]_20_18
24_[Fine Bandle City]_23
25_[Inizio Demacia Noxus 2]_20_14_16
26_[Fine Demacia Noxus 2]_25
27_[Inizio Ionia]_5
28_[Fine Ionia]_27
29_[Fine Void]_10
30_[Finale]_26_24_22_29
